{
  "name": "July",
  "abbreviation": "July",
  "talks": [
    {
      "presenter": {
        "name": "Ben Schmitt"
      },
      "presentation": {
        "title": "Spider Chart: the one chart to rule them all?",
        "description": "In security, sometimes we are selling something people don’t want to “buy”.  Other times, we are trying to explain complex information to people in puffy chairs and without crayons or a whiteboard, how do we get our point across?  Sure, robust business cases work but at the board level, how do you graphically communicate your request in its most simple and powerful form? I present to you the “Spider Chart” - a tool born in Denmark which I have continued to refine and use effectively over the years.  This isn’t a technical tool, it is not an elite zero day or even a shiny new threat intelligence kernel module forensic canary token however it is a colorful and simple way to show leadership the maturity of a security program and perhaps more importantly, where to invest. I’ll show variations of the chart and provide the shell .xlsx document - use it wisely!",
        "links": [
        {
          "url": "./2016/07/SecDSM-SpiderChart.pdf",
          "type": "file-pdf-o"
        },
        {
          "url": "./2016/07/cobit_nist_cis_spider.xlsx",
          "type": "file-excel-o"
        }
      ]
      }
  },
  {
    "presenter": {
      "name": "Brandon Murphy"
    },
    "presentation": {
      "title": "Network Flows - Generation",
      "description": "This talk will cover how to generate network flows using tools such as yaf, bro, argus, ntop, switches and routers, etc. Collecting and Analyzing will be covered in later discussions."
    }
  }
  ]
}
